{
  "Values": [
    {
      "LastTime": 1560489292,
      "ulPercentage": 100,
      "RTT": 0.065415,
      "Bid": "",
      "ulSliceId": 0,
      "dl_freq": 2685,
      "AddB": "10.8.10.203",
      "AddA": "10.8.255.33",
      "ul_freq": 2565,
      "ul_bandwidth": 50,
      "imsi": "208920100001102",
      "eNB_id": "234946560",
      "A": "10.8.255.33",
      "B": "10.8.10.203",
      "portB": 5201,
      "portA": 54732,
      "ABthr": 13133.1,
      "band": 7,
      "BAthr": 303.25,
      "Aid": "",
      "ue_ip": "172.16.0.7",
      "dlPercentage": 100,
      "enb_ip": "10.8.255.5",
      "dl_bandwidth": 50,
      "APP": "TCP",
      "core_slice_id": 0,
      "rnti": 51557,
      "dlSliceId": 0
    }
  ]
}