{
  "swagger": "2.0",
  "info": {
    "description": "This is the API exposed by ue_data_loader",
    "version": "1.0.0",
    "title": "ue_data_loader",
    "contact": {
      "email": "p.giardina@nextworks.it"
    },
    "license": {
      "name": "Apache 2.0",
      "url": "http://www.apache.org/licenses/LICENSE-2.0.html"
    }
  },

  "basePath": "/localhost:65010",
  "tags": [
    {
      "name": "udl",
      "description": "Everything about ue_data_loader"

    }
  ],
  "schemes": [
    "http"
  ],
  "paths": {
    "/monitoring/": {
      "post": {
        "tags": [
          "udl"
        ],
        "summary": "Updates a pet in the store with form data",
        "description": "",
        "operationId": "push-UE-data",
        "consumes": [
          "application/json"
        ],

        "parameters": [
          {
            "name": "body",
            "in": "body",
            "description": "Configuration",
            "required": true,
            "schema": {
              "$ref": "#/definitions/Conf"
            }
          }
        ],
        "responses": {
          "200": {
            "description": "OK"
          }
        }
      }
    },
    "/cpsr-info": {
      "post":{
        "tags": [
          "udl"
        ],
        "summary": "Post plugin config",
        "description": "",
        "operationId": "confPlugin",
        "produces": [
          "application/json"
        ],
        "responses": {
          "200": {
            "description": "successful operation"
          }
        }
      }
    }
  },
  "definitions": {
    "Conf": {
      "type": "object",
      "properties": {
        "imsi": {
          "type": "string"
        },
        "dl_bitrate": {
          "type": "number"
        },
        "ul_bitrate": {
          "type": "number"
        },
        "NRxRSRQ": {
          "type": "number"
        },
        "NRxRSRP": {
          "type": "number"
        },
        "cqi": {
          "type": "number"
        },
        "rssi": {
          "type": "number"
        },
        "rsrp": {
          "type": "number"
        },
        "rsrq": {
          "type": "number"
        },
        "snr": {
          "type": "number"
        },
        "time": {
          "type": "number"
        }
      }
    }
  }
}